{
  "hole" : [ [ 0, 8 ], [ 8, 0 ], [ 21, 11 ], [ 29, 21 ], [ 58, 51 ], [ 38, 13 ], [ 44, 0 ], [ 60, 18 ], [ 81, 1 ], [ 94, 0 ], [ 106, 13 ], [ 111, 24 ], [ 115, 42 ], [ 106, 52 ], [ 96, 39 ], [ 78, 18 ], [ 82, 46 ], [ 71, 67 ], [ 86, 70 ], [ 102, 73 ], [ 113, 61 ], [ 115, 81 ], [ 97, 87 ], [ 113, 107 ], [ 104, 115 ], [ 90, 98 ], [ 85, 110 ], [ 71, 115 ], [ 53, 104 ], [ 60, 94 ], [ 69, 82 ], [ 57, 74 ], [ 46, 67 ], [ 40, 81 ], [ 31, 97 ], [ 11, 115 ], [ 0, 110 ], [ 4, 93 ], [ 26, 79 ], [ 12, 70 ], [ 6, 58 ], [ 16, 47 ], [ 31, 44 ], [ 23, 33 ], [ 0, 39 ], [ 9, 23 ] ],
  "figure" : {
    "edges" : [ [ 2, 5 ], [ 5, 4 ], [ 4, 1 ], [ 1, 0 ], [ 0, 8 ], [ 8, 3 ], [ 3, 7 ], [ 7, 11 ], [ 11, 13 ], [ 13, 12 ], [ 12, 18 ], [ 18, 19 ], [ 19, 14 ], [ 14, 15 ], [ 15, 17 ], [ 17, 16 ], [ 16, 10 ], [ 10, 6 ], [ 6, 2 ], [ 8, 12 ], [ 7, 9 ], [ 9, 3 ], [ 8, 9 ], [ 9, 12 ], [ 13, 9 ], [ 9, 11 ], [ 4, 8 ], [ 12, 14 ], [ 5, 10 ], [ 10, 15 ] ],
    "vertices" : [ [ 30, 40 ], [ 30, 50 ], [ 40, 105 ], [ 50, 25 ], [ 50, 45 ], [ 50, 75 ], [ 50, 105 ], [ 55, 15 ], [ 55, 35 ], [ 60, 25 ], [ 60, 80 ], [ 65, 15 ], [ 65, 35 ], [ 70, 25 ], [ 70, 45 ], [ 70, 75 ], [ 70, 105 ], [ 80, 105 ], [ 90, 40 ], [ 90, 50 ] ],
    "synedges" : null
  },
  "epsilon" : 160000,
  "bonuses" : [ {
    "bonus" : "WALLHACK",
    "problem" : 121,
    "position" : [ 93, 24 ]
  }, {
    "bonus" : "BREAK_A_LEG",
    "problem" : 110,
    "position" : [ 75, 96 ]
  }, {
    "bonus" : "GLOBALIST",
    "problem" : 125,
    "position" : [ 45, 39 ]
  } ]
}