{
  "hole" : [ [ 21, 21 ], [ 35, 16 ], [ 14, 5 ], [ 38, 0 ], [ 50, 23 ], [ 61, 0 ], [ 64, 19 ], [ 80, 21 ], [ 85, 12 ], [ 74, 0 ], [ 92, 0 ], [ 103, 2 ], [ 114, 5 ], [ 98, 23 ], [ 85, 43 ], [ 64, 46 ], [ 77, 58 ], [ 99, 52 ], [ 105, 44 ], [ 115, 28 ], [ 115, 49 ], [ 112, 59 ], [ 115, 78 ], [ 101, 73 ], [ 87, 76 ], [ 74, 91 ], [ 92, 92 ], [ 107, 86 ], [ 111, 99 ], [ 115, 113 ], [ 101, 105 ], [ 86, 104 ], [ 76, 105 ], [ 66, 105 ], [ 58, 82 ], [ 47, 98 ], [ 50, 114 ], [ 36, 111 ], [ 24, 98 ], [ 13, 85 ], [ 12, 104 ], [ 0, 96 ], [ 3, 79 ], [ 9, 65 ], [ 21, 74 ], [ 34, 83 ], [ 41, 73 ], [ 49, 63 ], [ 32, 60 ], [ 17, 55 ], [ 3, 50 ], [ 0, 32 ], [ 2, 15 ], [ 12, 27 ], [ 23, 40 ], [ 42, 39 ] ],
  "figure" : {
    "edges" : [ [ 22, 31 ], [ 31, 19 ], [ 19, 22 ], [ 31, 37 ], [ 37, 11 ], [ 11, 19 ], [ 11, 5 ], [ 37, 40 ], [ 10, 9 ], [ 9, 12 ], [ 12, 17 ], [ 17, 20 ], [ 20, 21 ], [ 21, 18 ], [ 18, 13 ], [ 13, 10 ], [ 33, 36 ], [ 36, 35 ], [ 35, 32 ], [ 32, 29 ], [ 29, 24 ], [ 24, 25 ], [ 25, 30 ], [ 30, 33 ], [ 5, 2 ], [ 42, 40 ], [ 40, 35 ], [ 24, 20 ], [ 9, 5 ], [ 6, 3 ], [ 3, 0 ], [ 0, 1 ], [ 1, 4 ], [ 4, 7 ], [ 14, 15 ], [ 15, 16 ], [ 16, 27 ], [ 27, 23 ], [ 23, 26 ], [ 26, 14 ], [ 15, 23 ], [ 41, 38 ], [ 38, 34 ], [ 7, 8 ], [ 27, 28 ], [ 38, 39 ], [ 42, 39 ], [ 39, 28 ], [ 28, 8 ], [ 8, 2 ] ],
    "vertices" : [ [ 20, 20 ], [ 20, 35 ], [ 20, 45 ], [ 25, 15 ], [ 25, 40 ], [ 30, 60 ], [ 40, 15 ], [ 40, 40 ], [ 40, 45 ], [ 40, 60 ], [ 40, 65 ], [ 40, 75 ], [ 45, 55 ], [ 45, 70 ], [ 50, 15 ], [ 50, 30 ], [ 50, 40 ], [ 50, 55 ], [ 50, 70 ], [ 50, 90 ], [ 55, 60 ], [ 55, 65 ], [ 60, 105 ], [ 65, 30 ], [ 65, 60 ], [ 65, 65 ], [ 70, 15 ], [ 70, 40 ], [ 70, 45 ], [ 70, 55 ], [ 70, 70 ], [ 70, 90 ], [ 75, 55 ], [ 75, 70 ], [ 80, 15 ], [ 80, 60 ], [ 80, 65 ], [ 80, 75 ], [ 90, 40 ], [ 90, 45 ], [ 90, 60 ], [ 100, 15 ], [ 100, 45 ] ],
    "synedges" : null
  },
  "epsilon" : 110000,
  "bonuses" : [ {
    "bonus" : "GLOBALIST",
    "problem" : 112,
    "position" : [ 90, 63 ]
  }, {
    "bonus" : "SUPERFLEX",
    "problem" : 123,
    "position" : [ 33, 30 ]
  }, {
    "bonus" : "SUPERFLEX",
    "problem" : 90,
    "position" : [ 75, 78 ]
  } ]
}