{
  "hole" : [ [ 20, 0 ], [ 40, 20 ], [ 20, 40 ], [ 0, 20 ] ],
  "figure" : {
    "edges" : [ [ 0, 1 ], [ 0, 2 ], [ 1, 3 ], [ 2, 3 ] ],
    "vertices" : [ [ 15, 21 ], [ 34, 0 ], [ 0, 45 ], [ 19, 24 ] ],
    "synedges" : null
  },
  "epsilon" : 2494,
  "bonuses" : [ {
    "bonus" : "GLOBALIST",
    "problem" : 46,
    "position" : [ 20, 20 ]
  }, {
    "bonus" : "BREAK_A_LEG",
    "problem" : 88,
    "position" : [ 30, 30 ]
  }, {
    "bonus" : "GLOBALIST",
    "problem" : 20,
    "position" : [ 30, 12 ]
  } ]
}