{
  "hole" : [ [ 0, 30 ], [ 30, 0 ], [ 30, 28 ], [ 31, 56 ], [ 47, 59 ], [ 91, 120 ], [ 83, 82 ], [ 91, 31 ], [ 103, 65 ], [ 111, 29 ], [ 126, 41 ], [ 129, 20 ], [ 133, 0 ], [ 151, 20 ], [ 177, 3 ], [ 202, 0 ], [ 200, 17 ], [ 198, 35 ], [ 174, 98 ], [ 217, 42 ], [ 217, 73 ], [ 211, 103 ], [ 151, 139 ], [ 214, 129 ], [ 167, 154 ], [ 212, 160 ], [ 203, 198 ], [ 186, 214 ], [ 164, 211 ], [ 179, 188 ], [ 162, 183 ], [ 145, 179 ], [ 118, 183 ], [ 132, 198 ], [ 147, 214 ], [ 124, 214 ], [ 84, 193 ], [ 67, 185 ], [ 60, 199 ], [ 53, 214 ], [ 26, 214 ], [ 41, 193 ], [ 27, 184 ], [ 0, 197 ], [ 0, 162 ], [ 35, 166 ], [ 51, 164 ], [ 93, 162 ], [ 43, 142 ], [ 0, 120 ], [ 23, 114 ], [ 42, 119 ], [ 50, 104 ], [ 30, 91 ], [ 34, 73 ], [ 18, 69 ], [ 0, 100 ] ],
  "figure" : {
    "edges" : [ [ 39, 38 ], [ 38, 27 ], [ 27, 21 ], [ 21, 12 ], [ 12, 14 ], [ 14, 24 ], [ 24, 37 ], [ 37, 43 ], [ 43, 42 ], [ 42, 39 ], [ 14, 10 ], [ 10, 20 ], [ 20, 40 ], [ 40, 48 ], [ 48, 47 ], [ 47, 45 ], [ 45, 42 ], [ 12, 9 ], [ 9, 10 ], [ 34, 32 ], [ 32, 22 ], [ 22, 15 ], [ 15, 8 ], [ 8, 7 ], [ 7, 17 ], [ 17, 26 ], [ 26, 35 ], [ 35, 39 ], [ 39, 34 ], [ 7, 4 ], [ 4, 16 ], [ 16, 31 ], [ 31, 44 ], [ 44, 45 ], [ 30, 28 ], [ 28, 19 ], [ 19, 11 ], [ 11, 3 ], [ 3, 2 ], [ 2, 13 ], [ 13, 23 ], [ 23, 29 ], [ 29, 34 ], [ 34, 30 ], [ 2, 0 ], [ 0, 6 ], [ 6, 18 ], [ 18, 25 ], [ 25, 33 ], [ 33, 39 ], [ 30, 36 ], [ 36, 41 ], [ 41, 39 ], [ 45, 46 ], [ 46, 41 ], [ 8, 5 ], [ 5, 4 ], [ 3, 1 ], [ 1, 0 ] ],
    "vertices" : [ [ 21, 90 ], [ 22, 81 ], [ 28, 87 ], [ 30, 81 ], [ 41, 108 ], [ 43, 99 ], [ 44, 126 ], [ 51, 109 ], [ 55, 101 ], [ 60, 139 ], [ 62, 151 ], [ 66, 104 ], [ 69, 136 ], [ 72, 118 ], [ 72, 144 ], [ 83, 120 ], [ 85, 157 ], [ 87, 137 ], [ 105, 136 ], [ 107, 101 ], [ 110, 180 ], [ 112, 143 ], [ 124, 118 ], [ 129, 103 ], [ 131, 154 ], [ 145, 114 ], [ 146, 123 ], [ 148, 128 ], [ 151, 71 ], [ 156, 73 ], [ 157, 50 ], [ 157, 146 ], [ 158, 82 ], [ 162, 74 ], [ 164, 53 ], [ 167, 81 ], [ 169, 37 ], [ 169, 124 ], [ 171, 89 ], [ 172, 56 ], [ 173, 160 ], [ 178, 41 ], [ 178, 58 ], [ 180, 84 ], [ 180, 105 ], [ 184, 57 ], [ 185, 45 ], [ 188, 84 ], [ 196, 113 ] ],
    "synedges" : null
  },
  "epsilon" : 219513,
  "bonuses" : [ {
    "bonus" : "SUPERFLEX",
    "problem" : 109,
    "position" : [ 186, 135 ]
  }, {
    "bonus" : "SUPERFLEX",
    "problem" : 124,
    "position" : [ 171, 36 ]
  }, {
    "bonus" : "BREAK_A_LEG",
    "problem" : 23,
    "position" : [ 195, 84 ]
  } ]
}