{
  "hole" : [ [ 19, 128 ], [ 63, 96 ], [ 48, 63 ], [ 11, 47 ], [ 31, 1 ], [ 67, 23 ], [ 93, 54 ], [ 112, 23 ], [ 145, 5 ], [ 188, 44 ], [ 135, 73 ], [ 104, 117 ], [ 82, 149 ], [ 128, 140 ], [ 182, 150 ], [ 180, 186 ], [ 155, 197 ], [ 124, 189 ], [ 92, 191 ], [ 65, 192 ], [ 43, 188 ], [ 8, 196 ] ],
  "figure" : {
    "edges" : [ [ 51, 54 ], [ 54, 55 ], [ 55, 53 ], [ 53, 50 ], [ 50, 48 ], [ 48, 49 ], [ 49, 51 ], [ 53, 58 ], [ 58, 60 ], [ 60, 61 ], [ 61, 56 ], [ 56, 57 ], [ 57, 62 ], [ 62, 63 ], [ 63, 59 ], [ 59, 52 ], [ 50, 45 ], [ 45, 40 ], [ 40, 41 ], [ 41, 46 ], [ 46, 47 ], [ 47, 42 ], [ 42, 43 ], [ 43, 44 ], [ 44, 52 ], [ 46, 45 ], [ 58, 56 ], [ 52, 57 ], [ 47, 52 ], [ 46, 56 ], [ 57, 46 ], [ 47, 56 ], [ 50, 56 ], [ 53, 46 ], [ 50, 51 ], [ 51, 53 ], [ 49, 54 ], [ 48, 55 ], [ 71, 74 ], [ 74, 75 ], [ 75, 73 ], [ 73, 70 ], [ 70, 68 ], [ 68, 69 ], [ 69, 71 ], [ 73, 76 ], [ 76, 80 ], [ 80, 81 ], [ 81, 77 ], [ 77, 78 ], [ 78, 82 ], [ 82, 83 ], [ 83, 79 ], [ 79, 72 ], [ 70, 65 ], [ 65, 60 ], [ 60, 61 ], [ 61, 66 ], [ 66, 67 ], [ 67, 62 ], [ 62, 63 ], [ 63, 64 ], [ 64, 72 ], [ 66, 65 ], [ 76, 77 ], [ 72, 78 ], [ 67, 72 ], [ 66, 77 ], [ 78, 66 ], [ 67, 77 ], [ 70, 77 ], [ 73, 66 ], [ 70, 71 ], [ 71, 73 ], [ 69, 74 ], [ 68, 75 ], [ 31, 34 ], [ 34, 35 ], [ 35, 33 ], [ 33, 30 ], [ 30, 28 ], [ 28, 29 ], [ 29, 31 ], [ 33, 38 ], [ 38, 40 ], [ 40, 41 ], [ 41, 36 ], [ 36, 37 ], [ 37, 42 ], [ 42, 43 ], [ 43, 39 ], [ 39, 32 ], [ 30, 25 ], [ 25, 20 ], [ 20, 21 ], [ 21, 26 ], [ 26, 27 ], [ 27, 22 ], [ 22, 23 ], [ 23, 24 ], [ 24, 32 ], [ 26, 25 ], [ 38, 36 ], [ 32, 37 ], [ 27, 32 ], [ 26, 36 ], [ 37, 26 ], [ 27, 36 ], [ 30, 36 ], [ 33, 26 ], [ 30, 31 ], [ 31, 33 ], [ 29, 34 ], [ 28, 35 ], [ 11, 14 ], [ 14, 15 ], [ 15, 13 ], [ 13, 10 ], [ 10, 6 ], [ 6, 9 ], [ 9, 11 ], [ 13, 18 ], [ 18, 20 ], [ 20, 21 ], [ 21, 16 ], [ 16, 17 ], [ 17, 22 ], [ 22, 23 ], [ 23, 19 ], [ 19, 12 ], [ 10, 5 ], [ 5, 0 ], [ 0, 1 ], [ 1, 7 ], [ 7, 8 ], [ 8, 2 ], [ 2, 3 ], [ 3, 4 ], [ 4, 12 ], [ 7, 5 ], [ 18, 16 ], [ 12, 17 ], [ 8, 12 ], [ 7, 16 ], [ 17, 7 ], [ 8, 16 ], [ 10, 16 ], [ 13, 7 ], [ 10, 11 ], [ 11, 13 ], [ 9, 14 ], [ 6, 15 ] ],
    "vertices" : [ [ 17, 143 ], [ 17, 150 ], [ 17, 180 ], [ 17, 188 ], [ 22, 188 ], [ 28, 131 ], [ 29, 122 ], [ 29, 140 ], [ 29, 158 ], [ 31, 115 ], [ 34, 128 ], [ 38, 111 ], [ 38, 166 ], [ 42, 128 ], [ 45, 115 ], [ 46, 122 ], [ 47, 140 ], [ 47, 158 ], [ 48, 131 ], [ 54, 188 ], [ 58, 143 ], [ 58, 150 ], [ 58, 180 ], [ 58, 188 ], [ 63, 188 ], [ 69, 131 ], [ 70, 140 ], [ 70, 158 ], [ 71, 122 ], [ 72, 115 ], [ 75, 128 ], [ 79, 111 ], [ 79, 166 ], [ 83, 128 ], [ 86, 115 ], [ 88, 122 ], [ 88, 140 ], [ 88, 158 ], [ 89, 131 ], [ 95, 188 ], [ 100, 143 ], [ 100, 150 ], [ 100, 180 ], [ 100, 188 ], [ 104, 188 ], [ 110, 131 ], [ 111, 140 ], [ 111, 158 ], [ 112, 122 ], [ 113, 115 ], [ 116, 128 ], [ 120, 111 ], [ 120, 166 ], [ 124, 128 ], [ 127, 115 ], [ 129, 122 ], [ 129, 140 ], [ 129, 158 ], [ 130, 131 ], [ 136, 188 ], [ 141, 143 ], [ 141, 150 ], [ 141, 180 ], [ 141, 188 ], [ 145, 188 ], [ 151, 131 ], [ 152, 140 ], [ 152, 158 ], [ 153, 122 ], [ 155, 115 ], [ 158, 128 ], [ 161, 111 ], [ 161, 166 ], [ 165, 128 ], [ 168, 115 ], [ 170, 122 ], [ 171, 131 ], [ 171, 140 ], [ 171, 158 ], [ 178, 188 ], [ 182, 143 ], [ 182, 150 ], [ 182, 180 ], [ 182, 188 ] ],
    "synedges" : null
  },
  "epsilon" : 120000,
  "bonuses" : [ {
    "bonus" : "SUPERFLEX",
    "problem" : 123,
    "position" : [ 17, 163 ]
  }, {
    "bonus" : "WALLHACK",
    "problem" : 129,
    "position" : [ 152, 163 ]
  }, {
    "bonus" : "WALLHACK",
    "problem" : 96,
    "position" : [ 38, 31 ]
  } ]
}