{
  "hole" : [ [ 0, 20 ], [ 28, 0 ], [ 55, 61 ], [ 40, 96 ], [ 7, 91 ], [ 0, 54 ] ],
  "figure" : {
    "edges" : [ [ 0, 1 ], [ 0, 3 ], [ 0, 4 ], [ 1, 2 ], [ 1, 4 ], [ 2, 5 ], [ 3, 4 ], [ 4, 6 ], [ 5, 6 ] ],
    "vertices" : [ [ 18, 2 ], [ 52, 0 ], [ 16, 11 ], [ 0, 31 ], [ 37, 31 ], [ 47, 24 ], [ 14, 5 ] ],
    "synedges" : null
  },
  "epsilon" : 16310,
  "bonuses" : [ {
    "bonus" : "BREAK_A_LEG",
    "problem" : 30,
    "position" : [ 26, 68 ]
  }, {
    "bonus" : "WALLHACK",
    "problem" : 16,
    "position" : [ 21, 18 ]
  }, {
    "bonus" : "GLOBALIST",
    "problem" : 82,
    "position" : [ 6, 72 ]
  } ]
}