{
  "hole" : [ [ 0, 5 ], [ 6, 0 ], [ 34, 0 ], [ 36, 8 ], [ 43, 15 ], [ 48, 0 ], [ 56, 2 ], [ 56, 42 ], [ 52, 49 ], [ 45, 53 ], [ 37, 52 ], [ 28, 53 ], [ 19, 52 ], [ 7, 53 ], [ 11, 40 ], [ 0, 43 ] ],
  "figure" : {
    "edges" : [ [ 0, 1 ], [ 0, 2 ], [ 1, 3 ], [ 1, 5 ], [ 2, 4 ], [ 2, 6 ], [ 3, 4 ], [ 3, 5 ], [ 4, 6 ], [ 5, 6 ] ],
    "vertices" : [ [ 26, 21 ], [ 48, 10 ], [ 25, 44 ], [ 25, 7 ], [ 10, 25 ], [ 0, 20 ], [ 10, 0 ] ],
    "synedges" : null
  },
  "epsilon" : 50378,
  "bonuses" : [ {
    "bonus" : "BREAK_A_LEG",
    "problem" : 79,
    "position" : [ 56, 2 ]
  }, {
    "bonus" : "WALLHACK",
    "problem" : 48,
    "position" : [ 15, 18 ]
  }, {
    "bonus" : "SUPERFLEX",
    "problem" : 127,
    "position" : [ 39, 36 ]
  } ]
}