{
  "hole" : [ [ 24, 32 ], [ 65, 0 ], [ 85, 20 ], [ 78, 61 ], [ 53, 91 ], [ 2, 89 ], [ 0, 60 ] ],
  "figure" : {
    "edges" : [ [ 0, 1 ], [ 0, 2 ], [ 0, 3 ], [ 1, 4 ], [ 1, 6 ], [ 2, 3 ], [ 2, 5 ], [ 2, 8 ], [ 3, 4 ], [ 3, 7 ], [ 4, 6 ], [ 5, 8 ], [ 5, 9 ], [ 6, 7 ], [ 6, 10 ], [ 7, 9 ], [ 7, 10 ], [ 8, 11 ], [ 9, 10 ], [ 9, 11 ], [ 10, 11 ] ],
    "vertices" : [ [ 0, 82 ], [ 22, 99 ], [ 0, 46 ], [ 25, 67 ], [ 4, 79 ], [ 18, 29 ], [ 5, 51 ], [ 32, 41 ], [ 18, 0 ], [ 14, 58 ], [ 39, 65 ], [ 21, 29 ] ],
    "synedges" : null
  },
  "epsilon" : 137031,
  "bonuses" : [ {
    "bonus" : "BREAK_A_LEG",
    "problem" : 28,
    "position" : [ 43, 44 ]
  }, {
    "bonus" : "WALLHACK",
    "problem" : 31,
    "position" : [ 66, 21 ]
  }, {
    "bonus" : "GLOBALIST",
    "problem" : 16,
    "position" : [ 15, 48 ]
  } ]
}