{
  "hole" : [ [ 19, 19 ], [ 15, 0 ], [ 22, 15 ], [ 23, 35 ], [ 67, 38 ], [ 33, 67 ], [ 61, 91 ], [ 6, 72 ], [ 8, 59 ], [ 0, 50 ] ],
  "figure" : {
    "edges" : [ [ 7, 6 ], [ 6, 3 ], [ 3, 7 ], [ 3, 4 ], [ 4, 7 ], [ 7, 8 ], [ 8, 5 ], [ 5, 4 ], [ 8, 9 ], [ 9, 10 ], [ 10, 7 ], [ 7, 11 ], [ 11, 10 ], [ 11, 6 ], [ 9, 12 ], [ 12, 8 ], [ 5, 1 ], [ 1, 2 ], [ 2, 8 ], [ 2, 0 ], [ 0, 1 ] ],
    "vertices" : [ [ 0, 48 ], [ 9, 34 ], [ 14, 34 ], [ 27, 41 ], [ 30, 53 ], [ 33, 68 ], [ 44, 0 ], [ 44, 58 ], [ 44, 63 ], [ 56, 68 ], [ 59, 53 ], [ 61, 41 ], [ 89, 21 ] ],
    "synedges" : null
  },
  "epsilon" : 38462,
  "bonuses" : [ {
    "bonus" : "BREAK_A_LEG",
    "problem" : 71,
    "position" : [ 44, 46 ]
  }, {
    "bonus" : "SUPERFLEX",
    "problem" : 21,
    "position" : [ 42, 84 ]
  }, {
    "bonus" : "GLOBALIST",
    "problem" : 72,
    "position" : [ 27, 51 ]
  } ]
}