{
  "hole" : [ [ 55, 0 ], [ 61, 3 ], [ 68, 33 ], [ 85, 43 ], [ 107, 36 ], [ 94, 72 ], [ 101, 88 ], [ 95, 105 ], [ 70, 110 ], [ 47, 117 ], [ 53, 96 ], [ 63, 72 ], [ 39, 75 ], [ 22, 69 ], [ 19, 122 ], [ 2, 81 ], [ 0, 53 ], [ 0, 30 ] ],
  "figure" : {
    "edges" : [ [ 0, 1 ], [ 0, 2 ], [ 1, 4 ], [ 1, 6 ], [ 2, 5 ], [ 2, 8 ], [ 3, 4 ], [ 3, 6 ], [ 3, 7 ], [ 4, 5 ], [ 4, 7 ], [ 5, 8 ], [ 6, 9 ], [ 7, 10 ], [ 7, 11 ], [ 8, 11 ], [ 9, 10 ], [ 10, 11 ] ],
    "vertices" : [ [ 0, 100 ], [ 15, 68 ], [ 29, 122 ], [ 52, 37 ], [ 52, 71 ], [ 59, 105 ], [ 61, 4 ], [ 82, 54 ], [ 94, 108 ], [ 96, 0 ], [ 104, 34 ], [ 107, 73 ] ],
    "synedges" : null
  },
  "epsilon" : 23327,
  "bonuses" : [ {
    "bonus" : "GLOBALIST",
    "problem" : 33,
    "position" : [ 19, 122 ]
  }, {
    "bonus" : "GLOBALIST",
    "problem" : 4,
    "position" : [ 18, 99 ]
  }, {
    "bonus" : "SUPERFLEX",
    "problem" : 14,
    "position" : [ 78, 90 ]
  } ]
}