{
  "hole" : [ [ 164, 164 ], [ 121, 189 ], [ 71, 189 ], [ 28, 164 ], [ 3, 121 ], [ 3, 71 ], [ 28, 28 ], [ 71, 3 ], [ 121, 3 ], [ 164, 28 ], [ 189, 71 ], [ 96, 96 ], [ 189, 121 ] ],
  "figure" : {
    "edges" : [ [ 1, 2 ], [ 2, 3 ], [ 3, 7 ], [ 7, 1 ], [ 1, 0 ], [ 0, 5 ], [ 5, 19 ], [ 19, 33 ], [ 33, 36 ], [ 36, 37 ], [ 37, 32 ], [ 32, 35 ], [ 35, 38 ], [ 38, 37 ], [ 32, 29 ], [ 29, 25 ], [ 25, 24 ], [ 24, 32 ], [ 7, 16 ], [ 16, 17 ], [ 17, 12 ], [ 12, 7 ], [ 16, 24 ], [ 9, 10 ], [ 10, 14 ], [ 14, 13 ], [ 13, 9 ], [ 21, 22 ], [ 22, 27 ], [ 27, 26 ], [ 26, 21 ], [ 5, 9 ], [ 9, 0 ], [ 33, 26 ], [ 26, 36 ], [ 4, 6 ], [ 6, 8 ], [ 8, 11 ], [ 11, 15 ], [ 15, 18 ], [ 18, 20 ], [ 20, 23 ], [ 23, 28 ], [ 28, 30 ], [ 30, 31 ], [ 31, 34 ], [ 14, 18 ], [ 22, 20 ] ],
    "vertices" : [ [ 36, 86 ], [ 36, 141 ], [ 36, 156 ], [ 41, 156 ], [ 46, 131 ], [ 51, 56 ], [ 56, 116 ], [ 56, 141 ], [ 66, 116 ], [ 71, 81 ], [ 71, 96 ], [ 71, 131 ], [ 71, 156 ], [ 86, 81 ], [ 86, 96 ], [ 86, 131 ], [ 86, 141 ], [ 86, 156 ], [ 91, 116 ], [ 96, 36 ], [ 101, 116 ], [ 106, 81 ], [ 106, 96 ], [ 106, 131 ], [ 106, 141 ], [ 106, 156 ], [ 121, 81 ], [ 121, 96 ], [ 121, 131 ], [ 121, 156 ], [ 126, 116 ], [ 136, 116 ], [ 136, 141 ], [ 141, 56 ], [ 146, 131 ], [ 151, 156 ], [ 156, 86 ], [ 156, 141 ], [ 156, 156 ] ],
    "synedges" : null
  },
  "epsilon" : 150000,
  "bonuses" : [ {
    "bonus" : "GLOBALIST",
    "problem" : 16,
    "position" : [ 183, 61 ]
  }, {
    "bonus" : "SUPERFLEX",
    "problem" : 26,
    "position" : [ 147, 78 ]
  }, {
    "bonus" : "SUPERFLEX",
    "problem" : 50,
    "position" : [ 111, 153 ]
  } ]
}