{
  "hole" : [ [ 0, 0 ], [ 72, 0 ], [ 99, 37 ], [ 120, 11 ], [ 169, 25 ], [ 194, 1 ], [ 213, 25 ], [ 217, 56 ], [ 232, 85 ], [ 237, 151 ], [ 203, 105 ], [ 176, 59 ], [ 133, 105 ], [ 188, 146 ], [ 128, 137 ], [ 73, 118 ], [ 75, 150 ], [ 38, 158 ], [ 13, 121 ], [ 0, 88 ], [ 35, 83 ], [ 69, 70 ], [ 34, 35 ] ],
  "figure" : {
    "edges" : [ [ 0, 1 ], [ 0, 3 ], [ 1, 4 ], [ 2, 4 ], [ 2, 5 ], [ 3, 4 ], [ 3, 7 ], [ 4, 7 ], [ 4, 9 ], [ 5, 10 ], [ 6, 11 ], [ 6, 12 ], [ 7, 9 ], [ 8, 9 ], [ 8, 14 ], [ 9, 10 ], [ 9, 15 ], [ 10, 16 ], [ 11, 12 ], [ 11, 18 ], [ 12, 25 ], [ 13, 17 ], [ 13, 20 ], [ 14, 15 ], [ 14, 27 ], [ 15, 16 ], [ 15, 21 ], [ 15, 28 ], [ 17, 20 ], [ 17, 22 ], [ 18, 23 ], [ 18, 27 ], [ 19, 24 ], [ 19, 26 ], [ 20, 22 ], [ 20, 23 ], [ 21, 28 ], [ 21, 29 ], [ 22, 30 ], [ 23, 31 ], [ 24, 32 ], [ 25, 27 ], [ 26, 35 ], [ 27, 32 ], [ 27, 34 ], [ 28, 32 ], [ 28, 36 ], [ 29, 33 ], [ 29, 36 ], [ 30, 31 ], [ 30, 37 ], [ 31, 34 ], [ 31, 37 ], [ 31, 42 ], [ 32, 35 ], [ 32, 38 ], [ 33, 39 ], [ 34, 38 ], [ 34, 42 ], [ 35, 41 ], [ 36, 39 ], [ 37, 42 ], [ 38, 40 ], [ 38, 43 ], [ 38, 45 ], [ 40, 45 ], [ 40, 47 ], [ 41, 43 ], [ 43, 45 ], [ 43, 46 ], [ 43, 48 ], [ 44, 47 ], [ 44, 49 ], [ 45, 47 ], [ 45, 48 ], [ 45, 50 ], [ 46, 51 ], [ 47, 49 ], [ 47, 50 ], [ 48, 50 ], [ 48, 51 ], [ 48, 54 ], [ 49, 53 ], [ 50, 55 ], [ 51, 52 ], [ 51, 57 ], [ 52, 58 ], [ 53, 55 ], [ 53, 56 ], [ 54, 57 ], [ 55, 56 ], [ 57, 59 ], [ 58, 59 ] ],
    "vertices" : [ [ 10, 70 ], [ 10, 89 ], [ 18, 109 ], [ 30, 67 ], [ 33, 88 ], [ 38, 124 ], [ 50, 77 ], [ 52, 71 ], [ 53, 70 ], [ 54, 93 ], [ 56, 115 ], [ 66, 64 ], [ 74, 84 ], [ 79, 19 ], [ 79, 70 ], [ 79, 94 ], [ 79, 115 ], [ 82, 12 ], [ 83, 51 ], [ 84, 92 ], [ 86, 18 ], [ 87, 116 ], [ 90, 10 ], [ 93, 35 ], [ 94, 77 ], [ 96, 84 ], [ 98, 113 ], [ 101, 63 ], [ 101, 101 ], [ 102, 130 ], [ 108, 12 ], [ 109, 30 ], [ 115, 82 ], [ 116, 148 ], [ 117, 51 ], [ 117, 103 ], [ 118, 115 ], [ 129, 21 ], [ 131, 71 ], [ 134, 130 ], [ 135, 43 ], [ 137, 100 ], [ 138, 41 ], [ 151, 85 ], [ 155, 32 ], [ 157, 61 ], [ 163, 109 ], [ 169, 43 ], [ 174, 75 ], [ 176, 25 ], [ 184, 55 ], [ 186, 97 ], [ 188, 125 ], [ 192, 24 ], [ 196, 64 ], [ 200, 41 ], [ 209, 27 ], [ 211, 87 ], [ 212, 131 ], [ 227, 105 ] ],
    "synedges" : null
  },
  "epsilon" : 155173,
  "bonuses" : [ {
    "bonus" : "GLOBALIST",
    "problem" : 22,
    "position" : [ 237, 151 ]
  }, {
    "bonus" : "WALLHACK",
    "problem" : 22,
    "position" : [ 33, 0 ]
  }, {
    "bonus" : "SUPERFLEX",
    "problem" : 74,
    "position" : [ 159, 126 ]
  } ]
}