{
  "hole" : [ [ 49, 49 ], [ 22, 22 ], [ 36, 4 ], [ 62, 8 ], [ 95, 7 ], [ 120, 4 ], [ 135, 22 ], [ 106, 49 ], [ 107, 106 ], [ 50, 106 ], [ 22, 134 ], [ 3, 119 ], [ 8, 95 ], [ 8, 62 ] ],
  "figure" : {
    "edges" : [ [ 0, 3 ], [ 3, 16 ], [ 16, 31 ], [ 31, 33 ], [ 33, 23 ], [ 23, 7 ], [ 7, 0 ], [ 2, 14 ], [ 14, 32 ], [ 32, 29 ], [ 14, 29 ], [ 2, 5 ], [ 5, 4 ], [ 4, 9 ], [ 9, 20 ], [ 20, 25 ], [ 25, 26 ], [ 26, 32 ], [ 0, 1 ], [ 1, 8 ], [ 8, 19 ], [ 19, 28 ], [ 28, 27 ], [ 27, 30 ], [ 30, 33 ], [ 1, 4 ], [ 30, 25 ], [ 24, 21 ], [ 21, 17 ], [ 17, 22 ], [ 22, 24 ], [ 6, 11 ], [ 11, 13 ], [ 13, 10 ], [ 10, 6 ], [ 13, 12 ], [ 12, 15 ], [ 15, 18 ], [ 18, 17 ], [ 24, 28 ], [ 6, 8 ] ],
    "vertices" : [ [ 40, 39 ], [ 40, 68 ], [ 44, 121 ], [ 48, 14 ], [ 49, 83 ], [ 52, 115 ], [ 56, 55 ], [ 57, 24 ], [ 57, 39 ], [ 61, 96 ], [ 62, 57 ], [ 63, 49 ], [ 66, 70 ], [ 69, 55 ], [ 71, 125 ], [ 72, 74 ], [ 78, 7 ], [ 78, 57 ], [ 78, 71 ], [ 79, 34 ], [ 79, 98 ], [ 85, 54 ], [ 85, 61 ], [ 86, 24 ], [ 91, 59 ], [ 92, 85 ], [ 92, 98 ], [ 96, 69 ], [ 97, 47 ], [ 98, 139 ], [ 100, 73 ], [ 102, 22 ], [ 103, 107 ], [ 104, 43 ] ],
    "synedges" : null
  },
  "epsilon" : 187500,
  "bonuses" : [ {
    "bonus" : "GLOBALIST",
    "problem" : 70,
    "position" : [ 106, 85 ]
  }, {
    "bonus" : "WALLHACK",
    "problem" : 28,
    "position" : [ 48, 22 ]
  }, {
    "bonus" : "WALLHACK",
    "problem" : 3,
    "position" : [ 36, 118 ]
  } ]
}