{
  "hole" : [ [ 65, 1 ], [ 65, 53 ], [ 38, 53 ], [ 38, 79 ], [ 11, 79 ], [ 11, 27 ], [ 38, 27 ], [ 38, 1 ] ],
  "figure" : {
    "edges" : [ [ 21, 16 ], [ 16, 10 ], [ 10, 9 ], [ 9, 15 ], [ 15, 20 ], [ 20, 21 ], [ 33, 27 ], [ 27, 21 ], [ 21, 20 ], [ 20, 26 ], [ 26, 32 ], [ 32, 33 ], [ 44, 39 ], [ 39, 33 ], [ 33, 32 ], [ 32, 38 ], [ 38, 43 ], [ 43, 44 ], [ 40, 34 ], [ 34, 28 ], [ 28, 27 ], [ 27, 33 ], [ 33, 39 ], [ 39, 40 ], [ 28, 22 ], [ 22, 17 ], [ 17, 16 ], [ 16, 21 ], [ 21, 27 ], [ 27, 28 ], [ 17, 11 ], [ 11, 5 ], [ 5, 4 ], [ 4, 10 ], [ 10, 16 ], [ 16, 17 ], [ 50, 45 ], [ 45, 40 ], [ 40, 39 ], [ 39, 44 ], [ 44, 49 ], [ 49, 50 ], [ 46, 41 ], [ 41, 35 ], [ 35, 34 ], [ 34, 40 ], [ 40, 45 ], [ 45, 46 ], [ 35, 29 ], [ 29, 23 ], [ 23, 22 ], [ 22, 28 ], [ 28, 34 ], [ 34, 35 ], [ 23, 18 ], [ 18, 12 ], [ 12, 11 ], [ 11, 17 ], [ 17, 22 ], [ 22, 23 ], [ 12, 6 ], [ 6, 1 ], [ 1, 0 ], [ 0, 5 ], [ 5, 11 ], [ 11, 12 ], [ 55, 51 ], [ 51, 46 ], [ 46, 45 ], [ 45, 50 ], [ 50, 54 ], [ 54, 55 ], [ 52, 47 ], [ 47, 42 ], [ 42, 41 ], [ 41, 46 ], [ 46, 51 ], [ 51, 52 ], [ 42, 36 ], [ 36, 30 ], [ 30, 29 ], [ 29, 35 ], [ 35, 41 ], [ 41, 42 ], [ 30, 24 ], [ 24, 19 ], [ 19, 18 ], [ 18, 23 ], [ 23, 29 ], [ 29, 30 ], [ 19, 13 ], [ 13, 7 ], [ 7, 6 ], [ 6, 12 ], [ 12, 18 ], [ 18, 19 ], [ 14, 8 ], [ 8, 3 ], [ 3, 2 ], [ 2, 7 ], [ 7, 13 ], [ 13, 14 ], [ 37, 31 ], [ 31, 25 ], [ 25, 24 ], [ 24, 30 ], [ 30, 36 ], [ 36, 37 ], [ 57, 53 ], [ 53, 48 ], [ 48, 47 ], [ 47, 52 ], [ 52, 56 ], [ 56, 57 ] ],
    "vertices" : [ [ 7, 34 ], [ 7, 41 ], [ 7, 55 ], [ 7, 62 ], [ 13, 24 ], [ 13, 31 ], [ 13, 45 ], [ 13, 52 ], [ 13, 66 ], [ 19, 13 ], [ 19, 20 ], [ 19, 34 ], [ 19, 41 ], [ 19, 55 ], [ 19, 62 ], [ 25, 10 ], [ 25, 24 ], [ 25, 31 ], [ 25, 45 ], [ 25, 52 ], [ 31, 13 ], [ 31, 20 ], [ 31, 34 ], [ 31, 41 ], [ 31, 55 ], [ 31, 62 ], [ 38, 10 ], [ 38, 24 ], [ 38, 31 ], [ 38, 45 ], [ 38, 52 ], [ 38, 66 ], [ 44, 13 ], [ 44, 20 ], [ 44, 34 ], [ 44, 41 ], [ 44, 55 ], [ 44, 62 ], [ 50, 10 ], [ 50, 24 ], [ 50, 31 ], [ 50, 45 ], [ 50, 52 ], [ 56, 13 ], [ 56, 20 ], [ 56, 34 ], [ 56, 41 ], [ 56, 55 ], [ 56, 62 ], [ 62, 24 ], [ 62, 31 ], [ 62, 45 ], [ 62, 52 ], [ 62, 66 ], [ 68, 34 ], [ 68, 41 ], [ 68, 55 ], [ 68, 62 ] ],
    "synedges" : null
  },
  "epsilon" : 200000,
  "bonuses" : [ {
    "bonus" : "GLOBALIST",
    "problem" : 12,
    "position" : [ 65, 1 ]
  }, {
    "bonus" : "BREAK_A_LEG",
    "problem" : 95,
    "position" : [ 26, 73 ]
  }, {
    "bonus" : "WALLHACK",
    "problem" : 115,
    "position" : [ 53, 4 ]
  } ]
}