{
  "hole" : [ [ 9, 137 ], [ 4, 82 ], [ 82, 9 ], [ 106, 8 ], [ 187, 65 ], [ 197, 121 ], [ 194, 183 ], [ 137, 194 ], [ 66, 187 ], [ 6, 193 ] ],
  "figure" : {
    "edges" : [ [ 39, 38 ], [ 38, 27 ], [ 27, 21 ], [ 21, 12 ], [ 12, 14 ], [ 14, 24 ], [ 24, 37 ], [ 37, 43 ], [ 43, 42 ], [ 42, 39 ], [ 14, 10 ], [ 10, 20 ], [ 20, 40 ], [ 40, 48 ], [ 48, 47 ], [ 47, 45 ], [ 45, 42 ], [ 12, 9 ], [ 9, 10 ], [ 34, 32 ], [ 32, 22 ], [ 22, 15 ], [ 15, 8 ], [ 8, 7 ], [ 7, 17 ], [ 17, 26 ], [ 26, 35 ], [ 35, 39 ], [ 39, 34 ], [ 7, 4 ], [ 4, 16 ], [ 16, 31 ], [ 31, 44 ], [ 44, 45 ], [ 30, 28 ], [ 28, 19 ], [ 19, 11 ], [ 11, 3 ], [ 3, 2 ], [ 2, 13 ], [ 13, 23 ], [ 23, 29 ], [ 29, 34 ], [ 34, 30 ], [ 2, 0 ], [ 0, 6 ], [ 6, 18 ], [ 18, 25 ], [ 25, 33 ], [ 33, 39 ], [ 30, 36 ], [ 36, 41 ], [ 41, 39 ], [ 45, 46 ], [ 46, 41 ], [ 8, 5 ], [ 5, 4 ], [ 3, 1 ], [ 1, 0 ] ],
    "vertices" : [ [ 11, 80 ], [ 12, 71 ], [ 18, 77 ], [ 20, 71 ], [ 31, 98 ], [ 33, 89 ], [ 34, 116 ], [ 41, 99 ], [ 45, 91 ], [ 50, 129 ], [ 52, 141 ], [ 56, 94 ], [ 59, 126 ], [ 62, 108 ], [ 62, 134 ], [ 73, 110 ], [ 75, 147 ], [ 77, 127 ], [ 95, 126 ], [ 97, 91 ], [ 100, 170 ], [ 102, 133 ], [ 114, 108 ], [ 119, 93 ], [ 121, 144 ], [ 135, 104 ], [ 136, 113 ], [ 138, 118 ], [ 141, 61 ], [ 146, 63 ], [ 147, 40 ], [ 147, 136 ], [ 148, 72 ], [ 152, 64 ], [ 154, 43 ], [ 157, 71 ], [ 159, 27 ], [ 159, 114 ], [ 161, 79 ], [ 162, 46 ], [ 163, 150 ], [ 168, 31 ], [ 168, 48 ], [ 170, 74 ], [ 170, 95 ], [ 174, 47 ], [ 175, 35 ], [ 178, 74 ], [ 186, 103 ] ],
    "synedges" : null
  },
  "epsilon" : 171875,
  "bonuses" : [ {
    "bonus" : "GLOBALIST",
    "problem" : 40,
    "position" : [ 164, 153 ]
  }, {
    "bonus" : "SUPERFLEX",
    "problem" : 32,
    "position" : [ 28, 107 ]
  }, {
    "bonus" : "SUPERFLEX",
    "problem" : 117,
    "position" : [ 91, 152 ]
  } ]
}