{
  "hole" : [ [ 11, 0 ], [ 105, 8 ], [ 136, 2 ], [ 175, 6 ], [ 209, 13 ], [ 209, 73 ], [ 157, 41 ], [ 170, 102 ], [ 209, 118 ], [ 206, 169 ], [ 209, 208 ], [ 169, 209 ], [ 163, 178 ], [ 153, 138 ], [ 123, 148 ], [ 119, 178 ], [ 107, 209 ], [ 71, 209 ], [ 65, 171 ], [ 32, 190 ], [ 0, 209 ], [ 4, 164 ], [ 13, 124 ], [ 45, 120 ], [ 84, 143 ], [ 122, 104 ], [ 90, 82 ], [ 60, 80 ], [ 18, 91 ], [ 0, 45 ], [ 89, 51 ] ],
  "figure" : {
    "edges" : [ [ 1, 2 ], [ 2, 3 ], [ 3, 7 ], [ 7, 1 ], [ 1, 0 ], [ 0, 5 ], [ 5, 19 ], [ 19, 33 ], [ 33, 36 ], [ 36, 37 ], [ 37, 32 ], [ 32, 35 ], [ 35, 38 ], [ 38, 37 ], [ 32, 29 ], [ 29, 25 ], [ 25, 24 ], [ 24, 32 ], [ 7, 16 ], [ 16, 17 ], [ 17, 12 ], [ 12, 7 ], [ 16, 24 ], [ 9, 10 ], [ 10, 14 ], [ 14, 13 ], [ 13, 9 ], [ 21, 22 ], [ 22, 27 ], [ 27, 26 ], [ 26, 21 ], [ 5, 9 ], [ 9, 0 ], [ 33, 26 ], [ 26, 36 ], [ 4, 6 ], [ 6, 8 ], [ 8, 11 ], [ 11, 15 ], [ 15, 18 ], [ 18, 20 ], [ 20, 23 ], [ 23, 28 ], [ 28, 30 ], [ 30, 31 ], [ 31, 34 ], [ 14, 18 ], [ 22, 20 ] ],
    "vertices" : [ [ 46, 96 ], [ 46, 151 ], [ 46, 166 ], [ 51, 166 ], [ 56, 141 ], [ 61, 66 ], [ 66, 126 ], [ 66, 151 ], [ 76, 126 ], [ 81, 91 ], [ 81, 106 ], [ 81, 141 ], [ 81, 166 ], [ 96, 91 ], [ 96, 106 ], [ 96, 141 ], [ 96, 151 ], [ 96, 166 ], [ 101, 126 ], [ 106, 46 ], [ 111, 126 ], [ 116, 91 ], [ 116, 106 ], [ 116, 141 ], [ 116, 151 ], [ 116, 166 ], [ 131, 91 ], [ 131, 106 ], [ 131, 141 ], [ 131, 166 ], [ 136, 126 ], [ 146, 126 ], [ 146, 151 ], [ 151, 66 ], [ 156, 141 ], [ 161, 166 ], [ 166, 96 ], [ 166, 151 ], [ 166, 166 ] ],
    "synedges" : null
  },
  "epsilon" : 180000,
  "bonuses" : [ {
    "bonus" : "GLOBALIST",
    "problem" : 1,
    "position" : [ 0, 209 ]
  }, {
    "bonus" : "BREAK_A_LEG",
    "problem" : 62,
    "position" : [ 57, 15 ]
  }, {
    "bonus" : "WALLHACK",
    "problem" : 83,
    "position" : [ 39, 48 ]
  } ]
}