{
  "hole" : [ [ 5, 29 ], [ 4, 18 ], [ 0, 10 ], [ 8, 5 ], [ 16, 13 ], [ 21, 0 ], [ 33, 4 ], [ 33, 44 ], [ 47, 16 ], [ 59, 4 ], [ 68, 3 ], [ 78, 3 ], [ 115, 8 ], [ 72, 18 ], [ 83, 29 ], [ 92, 41 ], [ 109, 42 ], [ 101, 52 ], [ 97, 65 ], [ 115, 59 ], [ 115, 69 ], [ 108, 83 ], [ 110, 100 ], [ 102, 115 ], [ 100, 93 ], [ 99, 81 ], [ 85, 90 ], [ 92, 102 ], [ 74, 98 ], [ 70, 115 ], [ 61, 91 ], [ 61, 80 ], [ 77, 85 ], [ 65, 68 ], [ 73, 58 ], [ 91, 50 ], [ 71, 44 ], [ 59, 55 ], [ 55, 63 ], [ 51, 72 ], [ 47, 83 ], [ 41, 95 ], [ 25, 100 ], [ 44, 108 ], [ 26, 111 ], [ 15, 113 ], [ 5, 115 ], [ 2, 106 ], [ 14, 103 ], [ 12, 92 ], [ 24, 87 ], [ 36, 73 ], [ 56, 34 ], [ 24, 66 ], [ 22, 54 ], [ 0, 82 ], [ 4, 59 ], [ 2, 49 ], [ 1, 40 ], [ 19, 37 ] ],
  "figure" : {
    "edges" : [ [ 2, 5 ], [ 5, 4 ], [ 4, 1 ], [ 1, 0 ], [ 0, 8 ], [ 8, 3 ], [ 3, 7 ], [ 7, 11 ], [ 11, 13 ], [ 13, 12 ], [ 12, 18 ], [ 18, 19 ], [ 19, 14 ], [ 14, 15 ], [ 15, 17 ], [ 17, 16 ], [ 16, 10 ], [ 10, 6 ], [ 6, 2 ], [ 8, 12 ], [ 7, 9 ], [ 9, 3 ], [ 8, 9 ], [ 9, 12 ], [ 13, 9 ], [ 9, 11 ], [ 4, 8 ], [ 12, 14 ], [ 5, 10 ], [ 10, 15 ] ],
    "vertices" : [ [ 30, 40 ], [ 30, 50 ], [ 40, 105 ], [ 50, 25 ], [ 50, 45 ], [ 50, 75 ], [ 50, 105 ], [ 55, 15 ], [ 55, 35 ], [ 60, 25 ], [ 60, 80 ], [ 65, 15 ], [ 65, 35 ], [ 70, 25 ], [ 70, 45 ], [ 70, 75 ], [ 70, 105 ], [ 80, 105 ], [ 90, 40 ], [ 90, 50 ] ],
    "synedges" : null
  },
  "epsilon" : 160000,
  "bonuses" : [ {
    "bonus" : "BREAK_A_LEG",
    "problem" : 99,
    "position" : [ 96, 12 ]
  }, {
    "bonus" : "SUPERFLEX",
    "problem" : 30,
    "position" : [ 30, 24 ]
  }, {
    "bonus" : "GLOBALIST",
    "problem" : 7,
    "position" : [ 84, 72 ]
  } ]
}