{
  "hole" : [ [ 47, 20 ], [ 32, 33 ], [ 24, 45 ], [ 33, 40 ], [ 43, 41 ], [ 46, 54 ], [ 35, 61 ], [ 25, 57 ], [ 35, 65 ], [ 52, 64 ], [ 70, 55 ], [ 68, 45 ], [ 62, 30 ], [ 54, 18 ], [ 76, 5 ], [ 83, 15 ], [ 75, 24 ], [ 88, 52 ], [ 75, 72 ], [ 58, 82 ], [ 60, 98 ], [ 65, 121 ], [ 66, 133 ], [ 32, 134 ], [ 32, 126 ], [ 47, 121 ], [ 44, 103 ], [ 41, 86 ], [ 25, 81 ], [ 10, 73 ], [ 7, 57 ], [ 14, 37 ], [ 26, 21 ], [ 38, 12 ] ],
  "figure" : {
    "edges" : [ [ 6, 41 ], [ 41, 39 ], [ 39, 24 ], [ 24, 2 ], [ 2, 6 ], [ 24, 16 ], [ 16, 33 ], [ 33, 32 ], [ 32, 13 ], [ 13, 16 ], [ 33, 39 ], [ 13, 20 ], [ 20, 45 ], [ 45, 32 ], [ 20, 29 ], [ 29, 42 ], [ 42, 45 ], [ 29, 30 ], [ 30, 43 ], [ 43, 42 ], [ 30, 34 ], [ 34, 44 ], [ 44, 43 ], [ 34, 17 ], [ 17, 21 ], [ 21, 46 ], [ 46, 44 ], [ 20, 3 ], [ 3, 14 ], [ 14, 31 ], [ 3, 9 ], [ 9, 22 ], [ 22, 14 ], [ 22, 23 ], [ 23, 10 ], [ 10, 9 ], [ 10, 8 ], [ 8, 15 ], [ 15, 23 ], [ 8, 4 ], [ 4, 11 ], [ 11, 15 ], [ 31, 40 ], [ 40, 35 ], [ 35, 26 ], [ 26, 31 ], [ 26, 27 ], [ 27, 36 ], [ 36, 35 ], [ 27, 28 ], [ 28, 37 ], [ 37, 36 ], [ 28, 25 ], [ 25, 38 ], [ 38, 37 ], [ 45, 47 ], [ 47, 40 ], [ 3, 5 ], [ 5, 18 ], [ 18, 14 ], [ 31, 18 ], [ 18, 19 ], [ 19, 12 ], [ 12, 1 ], [ 1, 0 ], [ 0, 5 ], [ 0, 7 ], [ 7, 5 ], [ 18, 7 ], [ 7, 19 ], [ 12, 7 ], [ 7, 1 ] ],
    "vertices" : [ [ 38, 34 ], [ 40, 27 ], [ 41, 123 ], [ 42, 45 ], [ 42, 76 ], [ 43, 39 ], [ 43, 126 ], [ 45, 32 ], [ 45, 72 ], [ 46, 54 ], [ 46, 63 ], [ 46, 78 ], [ 47, 26 ], [ 47, 93 ], [ 48, 40 ], [ 49, 74 ], [ 49, 104 ], [ 49, 123 ], [ 50, 36 ], [ 51, 31 ], [ 51, 75 ], [ 51, 126 ], [ 52, 53 ], [ 52, 64 ], [ 52, 120 ], [ 53, 77 ], [ 54, 54 ], [ 54, 63 ], [ 54, 73 ], [ 54, 97 ], [ 54, 102 ], [ 56, 42 ], [ 56, 96 ], [ 57, 103 ], [ 57, 118 ], [ 59, 56 ], [ 59, 64 ], [ 59, 73 ], [ 59, 76 ], [ 59, 120 ], [ 60, 49 ], [ 61, 127 ], [ 62, 96 ], [ 63, 102 ], [ 65, 117 ], [ 66, 81 ], [ 66, 124 ], [ 69, 73 ] ],
    "synedges" : null
  },
  "epsilon" : 310345,
  "bonuses" : [ {
    "bonus" : "BREAK_A_LEG",
    "problem" : 102,
    "position" : [ 79, 38 ]
  }, {
    "bonus" : "WALLHACK",
    "problem" : 91,
    "position" : [ 67, 14 ]
  }, {
    "bonus" : "SUPERFLEX",
    "problem" : 122,
    "position" : [ 55, 131 ]
  } ]
}