{
  "hole" : [ [ 0, 17 ], [ 33, 0 ], [ 37, 31 ], [ 41, 63 ], [ 68, 48 ], [ 113, 35 ], [ 115, 0 ], [ 161, 1 ], [ 185, 20 ], [ 210, 41 ], [ 169, 92 ], [ 163, 43 ], [ 110, 85 ], [ 138, 106 ], [ 160, 133 ], [ 192, 175 ], [ 202, 214 ], [ 167, 203 ], [ 138, 166 ], [ 129, 209 ], [ 104, 181 ], [ 79, 197 ], [ 55, 214 ], [ 11, 214 ], [ 47, 179 ], [ 0, 177 ], [ 47, 131 ], [ 0, 131 ], [ 21, 96 ], [ 0, 60 ] ],
  "figure" : {
    "edges" : [ [ 4, 9 ], [ 9, 12 ], [ 12, 6 ], [ 6, 0 ], [ 0, 2 ], [ 2, 16 ], [ 16, 44 ], [ 44, 32 ], [ 32, 13 ], [ 13, 3 ], [ 3, 1 ], [ 1, 5 ], [ 5, 10 ], [ 10, 8 ], [ 8, 4 ], [ 8, 9 ], [ 12, 10 ], [ 5, 6 ], [ 1, 0 ], [ 13, 16 ], [ 2, 3 ], [ 7, 36 ], [ 36, 41 ], [ 41, 28 ], [ 28, 18 ], [ 18, 27 ], [ 27, 37 ], [ 37, 29 ], [ 29, 11 ], [ 11, 7 ], [ 7, 24 ], [ 24, 26 ], [ 29, 36 ], [ 37, 41 ], [ 27, 28 ], [ 32, 26 ], [ 48, 49 ], [ 49, 50 ], [ 50, 30 ], [ 30, 17 ], [ 17, 22 ], [ 22, 33 ], [ 33, 31 ], [ 31, 23 ], [ 23, 35 ], [ 35, 38 ], [ 38, 19 ], [ 19, 15 ], [ 15, 34 ], [ 34, 60 ], [ 60, 55 ], [ 55, 52 ], [ 31, 35 ], [ 33, 38 ], [ 22, 19 ], [ 15, 17 ], [ 30, 34 ], [ 50, 60 ], [ 49, 55 ], [ 48, 44 ], [ 52, 65 ], [ 65, 80 ], [ 80, 90 ], [ 90, 92 ], [ 92, 100 ], [ 100, 104 ], [ 104, 94 ], [ 94, 107 ], [ 107, 101 ], [ 101, 86 ], [ 86, 83 ], [ 83, 78 ], [ 78, 68 ], [ 68, 61 ], [ 65, 68 ], [ 78, 80 ], [ 83, 90 ], [ 92, 86 ], [ 100, 101 ], [ 104, 107 ], [ 61, 63 ], [ 63, 74 ], [ 74, 89 ], [ 89, 103 ], [ 103, 110 ], [ 110, 112 ], [ 112, 111 ], [ 111, 102 ], [ 102, 85 ], [ 85, 77 ], [ 77, 69 ], [ 63, 69 ], [ 77, 74 ], [ 85, 89 ], [ 103, 102 ], [ 110, 111 ], [ 72, 91 ], [ 91, 105 ], [ 105, 106 ], [ 106, 98 ], [ 98, 88 ], [ 88, 87 ], [ 87, 95 ], [ 95, 96 ], [ 96, 97 ], [ 97, 84 ], [ 84, 82 ], [ 82, 99 ], [ 99, 109 ], [ 109, 108 ], [ 108, 93 ], [ 93, 69 ], [ 69, 72 ], [ 91, 93 ], [ 105, 108 ], [ 109, 106 ], [ 98, 99 ], [ 82, 88 ], [ 87, 84 ], [ 95, 97 ], [ 72, 71 ], [ 71, 81 ], [ 81, 70 ], [ 70, 79 ], [ 79, 75 ], [ 75, 76 ], [ 76, 66 ], [ 66, 73 ], [ 73, 67 ], [ 71, 67 ], [ 81, 73 ], [ 70, 66 ], [ 79, 76 ], [ 67, 62 ], [ 62, 53 ], [ 53, 46 ], [ 46, 39 ], [ 39, 24 ], [ 11, 26 ], [ 39, 20 ], [ 20, 25 ], [ 25, 40 ], [ 40, 42 ], [ 42, 54 ], [ 54, 59 ], [ 59, 58 ], [ 58, 57 ], [ 57, 51 ], [ 51, 47 ], [ 47, 43 ], [ 43, 21 ], [ 21, 14 ], [ 14, 24 ], [ 57, 59 ], [ 51, 54 ], [ 47, 42 ], [ 40, 43 ], [ 21, 25 ], [ 20, 14 ], [ 39, 45 ], [ 45, 48 ], [ 45, 56 ], [ 56, 64 ], [ 64, 61 ], [ 48, 52 ], [ 52, 61 ], [ 64, 67 ] ],
    "vertices" : [ [ 39, 74 ], [ 44, 73 ], [ 47, 54 ], [ 49, 58 ], [ 53, 66 ], [ 53, 78 ], [ 53, 82 ], [ 58, 93 ], [ 59, 68 ], [ 60, 66 ], [ 61, 74 ], [ 61, 81 ], [ 64, 74 ], [ 67, 58 ], [ 68, 139 ], [ 69, 36 ], [ 70, 53 ], [ 73, 37 ], [ 73, 62 ], [ 75, 53 ], [ 76, 144 ], [ 77, 165 ], [ 78, 50 ], [ 79, 43 ], [ 80, 115 ], [ 80, 160 ], [ 82, 102 ], [ 83, 61 ], [ 84, 58 ], [ 84, 77 ], [ 86, 30 ], [ 86, 43 ], [ 86, 97 ], [ 87, 48 ], [ 88, 25 ], [ 88, 41 ], [ 88, 80 ], [ 89, 68 ], [ 90, 50 ], [ 91, 123 ], [ 91, 160 ], [ 93, 68 ], [ 93, 146 ], [ 94, 163 ], [ 96, 84 ], [ 96, 103 ], [ 96, 134 ], [ 97, 150 ], [ 98, 83 ], [ 100, 60 ], [ 105, 49 ], [ 105, 148 ], [ 106, 78 ], [ 107, 140 ], [ 107, 144 ], [ 108, 63 ], [ 108, 96 ], [ 108, 152 ], [ 109, 164 ], [ 112, 152 ], [ 114, 49 ], [ 115, 83 ], [ 115, 135 ], [ 119, 84 ], [ 119, 105 ], [ 121, 47 ], [ 122, 149 ], [ 124, 122 ], [ 127, 53 ], [ 127, 91 ], [ 128, 149 ], [ 129, 113 ], [ 130, 103 ], [ 132, 128 ], [ 133, 67 ], [ 135, 180 ], [ 136, 164 ], [ 137, 73 ], [ 139, 46 ], [ 139, 162 ], [ 141, 39 ], [ 142, 127 ], [ 146, 125 ], [ 147, 50 ], [ 148, 113 ], [ 149, 71 ], [ 150, 62 ], [ 150, 116 ], [ 150, 124 ], [ 151, 65 ], [ 153, 48 ], [ 153, 95 ], [ 154, 59 ], [ 156, 87 ], [ 157, 54 ], [ 157, 115 ], [ 159, 123 ], [ 160, 113 ], [ 161, 129 ], [ 161, 134 ], [ 162, 62 ], [ 163, 65 ], [ 163, 82 ], [ 165, 78 ], [ 166, 51 ], [ 166, 104 ], [ 168, 121 ], [ 170, 47 ], [ 173, 101 ], [ 174, 124 ], [ 175, 76 ], [ 177, 79 ], [ 179, 66 ] ],
    "synedges" : null
  },
  "epsilon" : 250000,
  "bonuses" : [ {
    "bonus" : "BREAK_A_LEG",
    "problem" : 101,
    "position" : [ 189, 66 ]
  }, {
    "bonus" : "SUPERFLEX",
    "problem" : 45,
    "position" : [ 135, 57 ]
  }, {
    "bonus" : "BREAK_A_LEG",
    "problem" : 2,
    "position" : [ 126, 138 ]
  } ]
}